{
  "music": "027",
  "title": "STARLIGHT☆FANTASY",
  "artist": "NAOKI feat.星野奏子",
  "genre": "original",
  "choreographer": "JAM TRUMP",
  "bpm": {
    "low": "",
    "main": "145",
    "high": ""
  },
  "difficulty": {
    "sta": {
      "lv": 2,
      "notes": 106,
      "release":"2022-04-27"
    },
    "sta_init": {
      "lv": 1,
      "notes": 104,
      "release":"2021-12-01"
    },
    "exp": {
      "lv": 5,
      "notes": 166,
      "release":"2022-04-27"
    },
    "exp_init": {
      "lv": 4,
      "notes": 154,
      "release":"2021-12-01"
    },
    "ult": {
      "lv": 10,
      "notes": 191,
      "release":"2022-04-27"
    },
    "ult_init": {
      "lv": 10,
      "notes": 191,
      "release":"2021-12-01"
    },
    "man": {
      "lv": 0,
      "notes": 0,
      "release":"9999-12-31"
    },
    "con": {
      "lv": 0,
      "notes": 0,
      "release":"9999-12-31"
    }
  }
}
