{
  "music": "063",
  "title": "Prism Melody",
  "artist": "hololive IDOL PROJECT",
  "genre": "virtual",
  "choreographer": "SOLID CUBE",
  "bpm": {
    "low": "",
    "main": "182",
    "high": ""
  },
  "difficulty": {
    "sta": {
      "lv": 5,
      "notes": 157,
      "release":"2022-08-02"
    },
    "exp": {
      "lv": 7,
      "notes": 177,
      "release":"2022-08-02"
    },
    "ult": {
      "lv": 10,
      "notes": 206,
      "release":"2022-08-02"
    },
    "man": {
      "lv": 0,
      "notes": 0,
      "release":"9999-12-31"
    },
    "con": {
      "lv": 30,
      "notes": 202,
      "release":"2023-01-10"
    }
  }
}
