{
  "music": "AAAA",
  "title": "BBBB",
  "artist": "CCCC",
  "genre": "DDDD",
  "choreographer": "",
  "bpm": {
    "low": "",
    "main": "",
    "high": ""
  },
  "difficulty": {
    "sta": {
      "lv": 0,
      "notes": 0,
      "release":"2023-01-01"
    },
    "sta_init": {
      "lv": 0,
      "notes": 0,
      "release":"2023-01-01"
    },
    "exp": {
      "lv": 0,
      "notes": 0,
      "release":"2023-01-01"
    },
    "exp_init": {
      "lv": 0,
      "notes": 0,
      "release":"2023-01-01"
    },
    "ult": {
      "lv": 0,
      "notes": 0,
      "release":"2023-01-01"
    },
    "ult_init": {
      "lv": 0,
      "notes": 0,
      "release":"2023-01-01"
    },
    "man": {
      "lv": 0,
      "notes": 0,
      "release":"9999-12-31"
    },
    "con": {
      "lv": 0,
      "notes": 0,
      "release":"9999-12-31"
    }
  }
}
