{
  "music": "003",
  "title": "Seyana.～何でも言うことを聞いてくれるアカネチャン～",
  "artist": "GYARI（ココアシガレットP）",
  "genre": "virtual",
  "choreographer": "SOLID CUBE",
  "bpm": {
    "low": "",
    "main": "144",
    "high": ""
  },
  "difficulty": {
    "sta": {
      "lv": 2,
      "notes": 129,
      "release":"2022-04-05"
    },
    "sta_init": {
      "lv": 2,
      "notes": 134,
      "release":"2021-12-01"
    },
    "exp": {
      "lv": 5,
      "notes": 150,
      "release":"2022-04-05"
    },
    "exp_init": {
      "lv": 3,
      "notes": 150,
      "release":"2021-12-01"
    },
    "ult": {
      "lv": 8,
      "notes": 220,
      "release":"2022-04-05"
    },
    "ult_init": {
      "lv": 7,
      "notes": 220,
      "release":"2021-12-01"
    },
    "man": {
      "lv": 0,
      "notes": 0,
      "release":"9999-12-31"
    },
    "con": {
      "lv": 0,
      "notes": 0,
      "release":"9999-12-31"
    }
  }
}
