{
  "music": "069",
  "title": "10pt8ion",
  "artist": "Lite Show Magic",
  "genre": "original",
  "choreographer": "SOLID CUBE",
  "bpm": {
    "low": "128",
    "main": "185",
    "high": "185"
  },
  "difficulty": {
    "sta": {
      "lv": 8,
      "notes": 172,
      "release":"2022-10-21"
    },
    "exp": {
      "lv": 10,
      "notes": 201,
      "release":"2022-10-21"
    },
    "ult": {
      "lv": 13,
      "notes": 205,
      "release":"2022-10-21"
    },
    "man": {
      "lv": 0,
      "notes": 0,
      "release":"9999-12-31"
    },
    "con": {
      "lv": 0,
      "notes": 0,
      "release":"9999-12-31"
    }
  }
}
