{
  "music": "058",
  "title": "ねねねねねねねね！大爆走",
  "artist": "桃鈴ねね（ホロライブ）",
  "genre": "virtual",
  "choreographer": "SOLID CUBE",
  "bpm": {
    "low": "",
    "main": "150",
    "high": ""
  },
  "difficulty": {
    "sta": {
      "lv": 5,
      "notes": 147,
      "release":"2022-07-05"
    },
    "exp": {
      "lv": 7,
      "notes": 191,
      "release":"2022-07-05"
    },
    "ult": {
      "lv": 9,
      "notes": 218,
      "release":"2022-07-05"
    },
    "man": {
      "lv": 0,
      "notes": 0,
      "release":"9999-12-31"
    },
    "con": {
      "lv": 36,
      "notes": 193,
      "release":"2022-08-02"
    }
  }
}
