{
  "music": "041",
  "title": "グリーンライツ・セレナーデ",
  "artist": "Omoi",
  "genre": "virtual",
  "choreographer": "Taito",
  "bpm": {
    "low": "",
    "main": "200",
    "high": ""
  },
  "difficulty": {
    "sta": {
      "lv": 4,
      "notes": 131,
      "release":"2022-04-05"
    },
    "sta_init": {
      "lv": 3,
      "notes": 134,
      "release":"2021-12-01"
    },
    "exp": {
      "lv": 7,
      "notes": 158,
      "release":"2022-04-05"
    },
    "exp_init": {
      "lv": 5,
      "notes": 159,
      "release":"2021-12-01"
    },
    "ult": {
      "lv": 9,
      "notes": 247,
      "release":"2022-04-05"
    },
    "ult_init": {
      "lv": 9,
      "notes": 247,
      "release":"2021-12-01"
    },
    "man": {
      "lv": 0,
      "notes": 0,
      "release":"9999-12-31"
    },
    "con": {
      "lv": 0,
      "notes": 0,
      "release":"9999-12-31"
    }
  }
}
