{
  "music": "065",
  "title": "シンデレラ",
  "artist": "DECO*27",
  "genre": "virtual",
  "choreographer": "SOLID CUBE",
  "bpm": {
    "low": "",
    "main": "158",
    "high": ""
  },
  "difficulty": {
    "sta": {
      "lv": 6,
      "notes": 185,
      "release":"2022-08-19"
    },
    "exp": {
      "lv": 7,
      "notes": 212,
      "release":"2022-08-19"
    },
    "ult": {
      "lv": 9,
      "notes": 231,
      "release":"2022-08-19"
    },
    "man": {
      "lv": 0,
      "notes": 0,
      "release":"9999-12-31"
    },
    "con": {
      "lv": 0,
      "notes": 0,
      "release":"9999-12-31"
    }
  }
}
