{
  "music": "008",
  "title": "シャルル",
  "artist": "バルーン",
  "genre": "pops",
  "choreographer": "JAM TRUMP",
  "bpm": {
    "low": "",
    "main": "145",
    "high": ""
  },
  "difficulty": {
    "sta": {
      "lv": 3,
      "notes": 86,
      "release":"2022-03-01"
    },
    "sta_init": {
      "lv": 2,
      "notes": 90,
      "release":"2021-12-01"
    },
    "exp": {
      "lv": 6,
      "notes": 127,
      "release":"2022-03-01"
    },
    "exp_init": {
      "lv": 6,
      "notes": 130,
      "release":"2021-12-01"
    },
    "ult": {
      "lv": 9,
      "notes": 140,
      "release":"2022-03-01"
    },
    "ult_init": {
      "lv": 9,
      "notes": 140,
      "release":"2021-12-01"
    },
    "man": {
      "lv": 0,
      "notes": 0,
      "release":"9999-12-31"
    },
    "con": {
      "lv": 0,
      "notes": 0,
      "release":"9999-12-31"
    }
  }
}
