{
  "music": "021",
  "title": "シュガーソングとビターステップ",
  "artist": "UNISON SQUARE GARDEN",
  "genre": "pops",
  "choreographer": "JAM TRUMP",
  "bpm": {
    "low": "",
    "main": "132",
    "high": ""
  },
  "difficulty": {
    "sta": {
      "lv": 2,
      "notes": 146,
      "release":"2022-04-05"
    },
    "sta_init": {
      "lv": 1,
      "notes": 144,
      "release":"2021-12-01"
    },
    "exp": {
      "lv": 5,
      "notes": 226,
      "release":"2022-04-05"
    },
    "exp_init": {
      "lv": 3,
      "notes": 222,
      "release":"2021-12-01"
    },
    "ult": {
      "lv": 8,
      "notes": 236,
      "release":"2022-04-05"
    },
    "ult_init": {
      "lv": 7,
      "notes": 229,
      "release":"2021-12-01"
    },
    "man": {
      "lv": 0,
      "notes": 0,
      "release":"9999-12-31"
    },
    "con": {
      "lv": 0,
      "notes": 0,
      "release":"9999-12-31"
    }
  }
}
