{
  "music": "006",
  "title": "ゴーストルール",
  "artist": "DECO*27",
  "genre": "virtual",
  "choreographer": "JAM TRUMP",
  "bpm": {
    "low": "",
    "main": "210",
    "high": ""
  },
  "difficulty": {
    "sta": {
      "lv": 4,
      "notes": 145,
      "release":"2022-03-01"
    },
    "sta_init": {
      "lv": 4,
      "notes": 166,
      "release":"2021-12-01"
    },
    "exp": {
      "lv": 8,
      "notes": 199,
      "release":"2022-03-01"
    },
    "exp_init": {
      "lv": 7,
      "notes": 243,
      "release":"2021-12-01"
    },
    "ult": {
      "lv": 11,
      "notes": 293,
      "release":"2022-03-01"
    },
    "ult_init": {
      "lv": 11,
      "notes": 292,
      "release":"2021-12-01"
    },
    "man": {
      "lv": 0,
      "notes": 0,
      "release":"9999-12-31"
    },
    "con": {
      "lv": 0,
      "notes": 0,
      "release":"9999-12-31"
    }
  }
}
