{
  "music": "057",
  "title": "天ノ弱",
  "artist": "164 feat.GUMI",
  "genre": "virtual",
  "choreographer": "SOLID CUBE",
  "bpm": {
    "low": "200",
    "main": "205",
    "high": "205"
  },
  "difficulty": {
    "sta": {
      "lv": 5,
      "notes": 188,
      "release":"2022-06-17"
    },
    "exp": {
      "lv": 7,
      "notes": 206,
      "release":"2022-06-17"
    },
    "ult": {
      "lv": 11,
      "notes": 222,
      "release":"2022-07-05"
    },
    "ult_init": {
      "lv": 10,
      "notes": 222,
      "release":"2022-06-17"
    },
    "man": {
      "lv": 0,
      "notes": 0,
      "release":"9999-12-31"
    },
    "con": {
      "lv": 0,
      "notes": 0,
      "release":"9999-12-31"
    }
  }
}
