{
  "music": "037",
  "title": "ロストワンの号哭",
  "artist": "Neru feat. 鏡音リン",
  "genre": "virtual",
  "choreographer": "JAM TRUMP",
  "bpm": {
    "low": "",
    "main": "162",
    "high": ""
  },
  "difficulty": {
    "sta": {
      "lv": 5,
      "notes": 159,
      "release":"2022-03-01"
    },
    "sta_init": {
      "lv": 4,
      "notes": 160,
      "release":"2021-12-01"
    },
    "exp": {
      "lv": 8,
      "notes": 183,
      "release":"2022-03-01"
    },
    "exp_init": {
      "lv": 6,
      "notes": 223,
      "release":"2021-12-01"
    },
    "ult": {
      "lv": 12,
      "notes": 288,
      "release":"2022-03-01"
    },
    "ult_init": {
      "lv": 11,
      "notes": 288,
      "release":"2021-12-01"
    },
    "man": {
      "lv": 0,
      "notes": 0,
      "release":"9999-12-31"
    },
    "con": {
      "lv": 0,
      "notes": 0,
      "release":"9999-12-31"
    }
  }
}
