{
  "music": "022",
  "title": "情熱大陸",
  "artist": "葉加瀬太郎",
  "genre": "variety",
  "choreographer": "JAM TRUMP",
  "bpm": {
    "low": "",
    "main": "134",
    "high": ""
  },
  "difficulty": {
    "sta": {
      "lv": 4,
      "notes": 104,
      "release":"2022-04-27"
    },
    "sta_init": {
      "lv": 3,
      "notes": 95,
      "release":"2021-12-01"
    },
    "exp": {
      "lv": 7,
      "notes": 125,
      "release":"2022-04-27"
    },
    "exp_init": {
      "lv": 6,
      "notes": 127,
      "release":"2021-12-01"
    },
    "ult": {
      "lv": 11,
      "notes": 140,
      "release":"2022-04-27"
    },
    "ult_init": {
      "lv": 8,
      "notes": 140,
      "release":"2021-12-01"
    },
    "man": {
      "lv": 0,
      "notes": 0,
      "release":"9999-12-31"
    },
    "con": {
      "lv": 0,
      "notes": 0,
      "release":"9999-12-31"
    }
  }
}
