{
  "music": "010",
  "title": "スクランブル交際",
  "artist": "DECO*27",
  "genre": "virtual",
  "choreographer": "JAM TRUMP",
  "bpm": {
    "low": "",
    "main": "150",
    "high": ""
  },
  "difficulty": {
    "sta": {
      "lv": 3,
      "notes": 124,
      "release":"2022-04-05"
    },
    "sta_init": {
      "lv": 2,
      "notes": 109,
      "release":"2021-12-01"
    },
    "exp": {
      "lv": 6,
      "notes": 146,
      "release":"2022-04-05"
    },
    "exp_init": {
      "lv": 4,
      "notes": 138,
      "release":"2021-12-01"
    },
    "ult": {
      "lv": 8,
      "notes": 162,
      "release":"2022-04-05"
    },
    "ult_init": {
      "lv": 9,
      "notes": 154,
      "release":"2021-12-01"
    },
    "man": {
      "lv": 0,
      "notes": 0,
      "release":"9999-12-31"
    },
    "con": {
      "lv": 0,
      "notes": 0,
      "release":"9999-12-31"
    }
  }
}
