{
  "music": "044",
  "title": "フレテミタイ",
  "artist": "みきとＰ",
  "genre": "original",
  "choreographer": "JAM TRUMP",
  "bpm": {
    "low": "",
    "main": "155",
    "high": ""
  },
  "difficulty": {
    "sta": {
      "lv": 5,
      "notes": 133,
      "release":"2022-04-27"
    },
    "sta_renew": {
      "lv": 3,
      "notes": 0,
      "release":"2022-03-01"
    },
    "sta_init": {
      "lv": 3,
      "notes": 117,
      "release":"2021-12-01"
    },
    "exp": {
      "lv": 7,
      "notes": 163,
      "release":"2022-04-27"
    },
    "exp_renew": {
      "lv": 6,
      "notes": 0,
      "release":"2022-03-01"
    },
    "exp_init": {
      "lv": 7,
      "notes": 186,
      "release":"2021-12-01"
    },
    "ult": {
      "lv": 9,
      "notes": 200,
      "release":"2022-04-27"
    },
    "ult_renew": {
      "lv": 10,
      "notes": 200,
      "release":"2022-03-01"
    },
    "ult_init": {
      "lv": 11,
      "notes": 256,
      "release":"2021-12-01"
    },
    "man": {
      "lv": 16,
      "notes": 318,
      "release":"2022-10-04"
    },
    "con": {
      "lv": 0,
      "notes": 0,
      "release":"2021-12-01"
    }
  }
}
